trace.vcd
$version Generated by VerilatedVcd $end
$date Fri Aug 28 20:11:41 2015
 $end
$timescale 1ps $end

 $scope module TOP $end
  $var wire  1 %N clk $end
  $var wire 64 %K entry [63:0] $end
  $var wire 64 %O req [63:0] $end
  $var wire  1 %W reqack $end
  $var wire  1 %U reqcyc $end
  $var wire 13 %Q reqtag [12:0] $end
  $var wire  1 %M reset $end
  $var wire 64 %R resp [63:0] $end
  $var wire  1 %X respack $end
  $var wire  1 %V respcyc $end
  $var wire 13 %T resptag [12:0] $end
  $scope module v $end
   $var wire 32 %Y DATA_WIDTH [31:0] $end
   $var wire 32 %Z TAG_WIDTH [31:0] $end
   $var wire  1 %N clk $end
   $var wire 64 %K entry [63:0] $end
   $var wire 64 ## req [63:0] $end
   $var wire  1 %W reqack $end
   $var wire  1 #& reqcyc $end
   $var wire 13 #% reqtag [12:0] $end
   $var wire  1 %M reset $end
   $var wire 64 %R resp [63:0] $end
   $var wire  1 $ respack $end
   $var wire  1 %V respcyc $end
   $var wire 13 %T resptag [12:0] $end
   $scope module core $end
    $var wire 32 %Y ACT_ADDR_WIDTH [31:0] $end
    $var wire 32 %\ ADDR_WIDTH [31:0] $end
    $var wire  1 l C $end
    $var wire 32 %] DATA_WIDTH [31:0] $end
    $var wire  1 j N $end
    $var wire  1 m V $end
    $var wire 32 %^ WORD_SIZE [31:0] $end
    $var wire  1 z Y $end
    $var wire  1 k Z $end
    $var wire  1 x alu_busy $end
    $var wire  1 y alu_done $end
    $var wire  1 "e alu_req $end
    $var wire  1 "c alu_reqack $end
    $var wire 32 v alu_val [31:0] $end
    $var wire 32 w alu_val_temp [31:0] $end
    $var wire  1 %4 alu_working $end
    $var wire  1 "P branch_flag $end
    $var wire  1 %3 branch_taken $end
    $var wire  1 $r branch_taken_ch $end
    $var wire  1 $Q byte_access $end
    $var wire  2 $P byte_select [1:0] $end
    $var wire  4 %_ bytes_decoded_this_cycle [3:0] $end
    $var wire  1 5 can_decode $end
    $var wire 32 g cwp [31:0] $end
    $var wire 512 V dcache_bus_data_in [511:0] $end
    $var wire 512 #u dcache_bus_data_out [511:0] $end
    $var wire 58 $' dcache_bus_line_addr [57:0] $end
    $var wire  1 #s dcache_bus_req $end
    $var wire  1 $F dcache_bus_reqack $end
    $var wire  1 #t dcache_bus_rw $end
    $var wire  1 $G dcache_bus_task_comp $end
    $var wire  1 $l dcache_comp $end
    $var wire 32 $L dcache_data_in [31:0] $end
    $var wire 32 $) dcache_data_out [31:0] $end
    $var wire 58 $I dcache_line_addr [57:0] $end
    $var wire  1 $H dcache_req $end
    $var wire  1 $k dcache_reqack $end
    $var wire  1 $K dcache_rw $end
    $var wire  4 $N dcache_set_index [3:0] $end
    $var wire  4 $M dcache_word_select [3:0] $end
    $var wire  1 %D decode_ack $end
    $var wire 1024 "/ decode_buffer [0:1023] $end
    $var wire  7 %0 decode_offset [6:0] $end
    $var wire  7 u decode_offset_temp [6:0] $end
    $var wire  1 4 decode_offset_wrap $end
    $var wire 64 %- decode_rip [63:0] $end
    $var wire 152 %? decoded_val [151:0] $end
    $var wire 32 $n destination [31:0] $end
    $var wire 64 %K entry [63:0] $end
    $var wire  7 %< fetch_offset [6:0] $end
    $var wire  7 t fetch_offset_temp [6:0] $end
    $var wire  1 3 fetch_offset_wrap $end
    $var wire 64 %+ fetch_rip [63:0] $end
    $var wire  6 %/ fetch_skip [5:0] $end
    $var wire 32 %* fetch_state [31:0] $end
    $var wire  1 %8 go_to_branch $end
    $var wire  1 "b go_to_call $end
    $var wire  1 %6 go_to_mem $end
    $var wire  1 $O go_to_memory $end
    $var wire  1 %7 go_to_nonsense $end
    $var wire  1 %9 go_to_save $end
    $var wire  1 %5 go_to_sys $end
    $var wire  1 %: go_to_wb $end
    $var wire 512 6 icache_bus_data_out [511:0] $end
    $var wire  1 #r icache_bus_req $end
    $var wire  1 #' icache_bus_reqack $end
    $var wire  1 #( icache_bus_task_comp $end
    $var wire  1 "f icache_comp $end
    $var wire 512 "g icache_data_out [511:0] $end
    $var wire 58 %1 icache_line_addr [57:0] $end
    $var wire  1 #) icache_req $end
    $var wire  1 "w icache_reqack $end
    $var wire  4 "O icache_set_index [3:0] $end
    $var wire 32 $R mem_state [31:0] $end
    $var wire 58 $p new_fetch_rip [57:0] $end
    $var wire  2 $o op [1:0] $end
    $var wire  6 $u op3 [5:0] $end
    $var wire 32 h oreg_start [31:0] $end
    $var wire  7 %[ prev_fetch_offset [6:0] $end
    $var wire 32 f psr [31:0] $end
    $var wire 32 $m rd [31:0] $end
    $var wire  1 "d ready_for_wb $end
    $var wire 32 %= reg_used [31:0] $end
    $var wire  1 %; send_fetch_req $end
    $var wire 32 $s source1 [31:0] $end
    $var wire 32 $t source2 [31:0] $end
    $var wire  1 { tag_overflow $end
    $var wire 512 "Q temp [511:0] $end
    $var wire  1 | trap $end
    $var wire 32 %> wim [31:0] $end
    $var wire 32 "a word_counter [31:0] $end
    $scope module Arbiter $end
     $var wire 32 %Y ACT_ADDR_WIDTH [31:0] $end
     $var wire 32 %\ ADDR_WIDTH [31:0] $end
     $var wire 32 %] DATA_WIDTH [31:0] $end
     $var wire 32 %Y LINE_WIDTH [31:0] $end
     $var wire 512 #` buffer [511:0] $end
     $var wire 32 # conversion_done [31:0] $end
     $var wire 32 #p counter [31:0] $end
     $var wire  1 $G dcache_comp $end
     $var wire 512 #u dcache_data_in [511:0] $end
     $var wire 512 V dcache_data_out [511:0] $end
     $var wire 64 $D dcache_line_addr [63:0] $end
     $var wire 512 #@ dcache_r [511:0] $end
     $var wire  1 #s dcache_req $end
     $var wire  1 $F dcache_reqack $end
     $var wire  1 #t dcache_rw $end
     $var wire 512 F dcache_w [511:0] $end
     $var wire  1 #( icache_comp $end
     $var wire 512 6 icache_data_out [511:0] $end
     $var wire 58 %1 icache_line_addr [57:0] $end
     $var wire 512 #P icache_r [511:0] $end
     $var wire  1 #r icache_req $end
     $var wire  1 #' icache_reqack $end
     $var wire 32 #q state [31:0] $end
     $scope module unnamedblk1 $end
      $var wire 32 %d j [31:0] $end
      $scope module unnamedblk2 $end
       $var wire 32 %e i [31:0] $end
      $upscope $end
     $upscope $end
     $scope module unnamedblk3 $end
      $var wire 32 %d j [31:0] $end
      $scope module unnamedblk4 $end
       $var wire 32 %e i [31:0] $end
      $upscope $end
     $upscope $end
     $scope module unnamedblk5 $end
      $var wire 32 %d j [31:0] $end
      $scope module unnamedblk6 $end
       $var wire 32 %e i [31:0] $end
      $upscope $end
     $upscope $end
    $upscope $end
    $scope module DC $end
     $var wire 32 %Y ACT_ADDR_WIDTH [31:0] $end
     $var wire 32 %\ ADDR_WIDTH [31:0] $end
     $var wire 32 %] DATA_WIDTH [31:0] $end
     $var wire 32 %a INDEX_WIDTH [31:0] $end
     $var wire 32 %` TAG_WIDTH [31:0] $end
     $var wire 32 %^ WORD_SIZE [31:0] $end
     $var wire  1 - age_en $end
     $var wire 32 $h age_r [31:0] $end
     $var wire 32 , age_w [31:0] $end
     $var wire 512 V bus_data_in [511:0] $end
     $var wire 512 #u bus_data_out [511:0] $end
     $var wire  1 #s bus_req $end
     $var wire 64 $' bus_req_addr [63:0] $end
     $var wire  1 #t bus_req_rw $end
     $var wire  1 $F bus_reqack $end
     $var wire  1 $G bus_task_comp $end
     $var wire  1 $Q byte_access $end
     $var wire  2 $P byte_selected [1:0] $end
     $var wire 32 $C cache_state [31:0] $end
     $var wire  5 2 check_counter [4:0] $end
     $var wire  1 %N clk $end
     $var wire 32 $B counter [31:0] $end
     $var wire 16 $v data_en [15:0] $end
     $var wire 32 $L data_in [31:0] $end
     $var wire 32 $) data_out [31:0] $end
     $var wire 512 $U data_r [511:0] $end
     $var wire 512 $w data_w [511:0] $end
     $var wire  1 $@ hit $end
     $var wire  9 / index [8:0] $end
     $var wire 64 $S line_addr [63:0] $end
     $var wire 32 %a log_num_rows [31:0] $end
     $var wire 32 %b log_num_sets [31:0] $end
     $var wire 32 1 max_age [31:0] $end
     $var wire  9 0 max_index [8:0] $end
     $var wire  1 $H req $end
     $var wire  1 $k reqack $end
     $var wire  1 %M reset $end
     $var wire  1 $K rw $end
     $var wire  5 $A set_counter [4:0] $end
     $var wire  4 $N set_index [3:0] $end
     $var wire  1 $? state_en $end
     $var wire  2 $g state_r [1:0] $end
     $var wire  2 $> state_w [1:0] $end
     $var wire  1 $= tag_en $end
     $var wire 54 $e tag_r [53:0] $end
     $var wire 54 $; tag_w [53:0] $end
     $var wire  1 $l task_comp $end
     $var wire  1 . update_done $end
     $var wire  4 $M word_select [3:0] $end
     $scope module age $end
      $var wire 32 %a LOG_NUM_ROWS [31:0] $end
      $var wire 32 %] NUM_ROWS [31:0] $end
      $var wire 32 %^ WIDTH [31:0] $end
      $var wire 32 %^ WORD_SIZE [31:0] $end
      $var wire  1 %N clk $end
      $var wire 32 $j i [31:0] $end
      $var wire  9 / readAddr [8:0] $end
      $var wire 32 $h readData [31:0] $end
      $var wire  1 %M reset $end
      $var wire  9 / writeAddr [8:0] $end
      $var wire 32 , writeData [31:0] $end
      $var wire  1 %) writeEnable [0:0] $end
     $upscope $end
     $scope module data $end
      $var wire 32 %a LOG_NUM_ROWS [31:0] $end
      $var wire 32 %] NUM_ROWS [31:0] $end
      $var wire 32 %] WIDTH [31:0] $end
      $var wire 32 %^ WORD_SIZE [31:0] $end
      $var wire  1 %N clk $end
      $var wire 32 $i i [31:0] $end
      $var wire  9 / readAddr [8:0] $end
      $var wire 512 $U readData [511:0] $end
      $var wire  1 %M reset $end
      $var wire  9 / writeAddr [8:0] $end
      $var wire 512 $w writeData [511:0] $end
      $var wire 16 $v writeEnable [15:0] $end
     $upscope $end
     $scope module state $end
      $var wire 32 %a LOG_NUM_ROWS [31:0] $end
      $var wire 32 %] NUM_ROWS [31:0] $end
      $var wire 32 %c WIDTH [31:0] $end
      $var wire 32 %c WORD_SIZE [31:0] $end
      $var wire  1 %N clk $end
      $var wire 32 "" i [31:0] $end
      $var wire  9 / readAddr [8:0] $end
      $var wire  2 $g readData [1:0] $end
      $var wire  1 %M reset $end
      $var wire  9 / writeAddr [8:0] $end
      $var wire  2 $> writeData [1:0] $end
      $var wire  1 $? writeEnable [0:0] $end
     $upscope $end
     $scope module tag $end
      $var wire 32 %a LOG_NUM_ROWS [31:0] $end
      $var wire 32 %] NUM_ROWS [31:0] $end
      $var wire 32 %` WIDTH [31:0] $end
      $var wire 32 %` WORD_SIZE [31:0] $end
      $var wire  1 %N clk $end
      $var wire 32 "! i [31:0] $end
      $var wire  9 / readAddr [8:0] $end
      $var wire 54 $e readData [53:0] $end
      $var wire  1 %M reset $end
      $var wire  9 / writeAddr [8:0] $end
      $var wire 54 $; writeData [53:0] $end
      $var wire  1 $= writeEnable [0:0] $end
     $upscope $end
    $upscope $end
    $scope module IC $end
     $var wire 32 %Y ACT_ADDR_WIDTH [31:0] $end
     $var wire 32 %\ ADDR_WIDTH [31:0] $end
     $var wire 32 %] DATA_WIDTH [31:0] $end
     $var wire 32 %a INDEX_WIDTH [31:0] $end
     $var wire 32 %` TAG_WIDTH [31:0] $end
     $var wire 32 %] WORD_SIZE [31:0] $end
     $var wire  1 & age_en $end
     $var wire 32 #= age_r [31:0] $end
     $var wire 32 % age_w [31:0] $end
     $var wire 512 6 bus_data_in [511:0] $end
     $var wire  1 #r bus_req $end
     $var wire 58 %1 bus_req_addr [57:0] $end
     $var wire  1 #' bus_reqack $end
     $var wire  1 #( bus_task_comp $end
     $var wire 32 #! cache_state [31:0] $end
     $var wire  5 + check_counter [4:0] $end
     $var wire  1 %N clk $end
     $var wire  1 $* data_en [0:0] $end
     $var wire 512 "g data_out [511:0] $end
     $var wire 512 #* data_r [511:0] $end
     $var wire 512 $+ data_w [511:0] $end
     $var wire  1 "} hit $end
     $var wire  9 ( index [8:0] $end
     $var wire 58 %1 line_addr [57:0] $end
     $var wire 32 %a log_num_rows [31:0] $end
     $var wire 32 %b log_num_sets [31:0] $end
     $var wire 32 * max_age [31:0] $end
     $var wire  9 ) max_index [8:0] $end
     $var wire  1 #) req $end
     $var wire  1 "w reqack $end
     $var wire  1 %M reset $end
     $var wire  5 "~ set_counter [4:0] $end
     $var wire  4 "O set_index [3:0] $end
     $var wire  1 "| state_en $end
     $var wire  1 #< state_r $end
     $var wire  1 "{ state_w $end
     $var wire  1 "z tag_en $end
     $var wire 54 #: tag_r [53:0] $end
     $var wire 54 "x tag_w [53:0] $end
     $var wire  1 "f task_comp $end
     $var wire  1 ' update_done $end
     $scope module age $end
      $var wire 32 %a LOG_NUM_ROWS [31:0] $end
      $var wire 32 %] NUM_ROWS [31:0] $end
      $var wire 32 %^ WIDTH [31:0] $end
      $var wire 32 %^ WORD_SIZE [31:0] $end
      $var wire  1 %N clk $end
      $var wire 32 #? i [31:0] $end
      $var wire  9 ( readAddr [8:0] $end
      $var wire 32 #= readData [31:0] $end
      $var wire  1 %M reset $end
      $var wire  9 ( writeAddr [8:0] $end
      $var wire 32 % writeData [31:0] $end
      $var wire  1 $* writeEnable [0:0] $end
     $upscope $end
     $scope module data $end
      $var wire 32 %a LOG_NUM_ROWS [31:0] $end
      $var wire 32 %] NUM_ROWS [31:0] $end
      $var wire 32 %] WIDTH [31:0] $end
      $var wire 32 %] WORD_SIZE [31:0] $end
      $var wire  1 %N clk $end
      $var wire 32 #> i [31:0] $end
      $var wire  9 ( readAddr [8:0] $end
      $var wire 512 #* readData [511:0] $end
      $var wire  1 %M reset $end
      $var wire  9 ( writeAddr [8:0] $end
      $var wire 512 $+ writeData [511:0] $end
      $var wire  1 $* writeEnable [0:0] $end
     $upscope $end
     $scope module state $end
      $var wire 32 %a LOG_NUM_ROWS [31:0] $end
      $var wire 32 %] NUM_ROWS [31:0] $end
      $var wire 32 %c WIDTH [31:0] $end
      $var wire 32 %c WORD_SIZE [31:0] $end
      $var wire  1 %N clk $end
      $var wire 32 ~ i [31:0] $end
      $var wire  9 ( readAddr [8:0] $end
      $var wire  2 #< readData [1:0] $end
      $var wire  1 %M reset $end
      $var wire  9 ( writeAddr [8:0] $end
      $var wire  2 #" writeData [1:0] $end
      $var wire  1 "| writeEnable [0:0] $end
     $upscope $end
     $scope module tag $end
      $var wire 32 %a LOG_NUM_ROWS [31:0] $end
      $var wire 32 %] NUM_ROWS [31:0] $end
      $var wire 32 %` WIDTH [31:0] $end
      $var wire 32 %` WORD_SIZE [31:0] $end
      $var wire  1 %N clk $end
      $var wire 32 } i [31:0] $end
      $var wire  9 ( readAddr [8:0] $end
      $var wire 54 #: readData [53:0] $end
      $var wire  1 %M reset $end
      $var wire  9 ( writeAddr [8:0] $end
      $var wire 54 "x writeData [53:0] $end
      $var wire  1 "z writeEnable [0:0] $end
     $upscope $end
    $upscope $end
    $scope module alu $end
     $var wire 32 ". ALU_state [31:0] $end
     $var wire  1 "& C $end
     $var wire  1 "# N $end
     $var wire  1 "% V $end
     $var wire 32 z Y [31:0] $end
     $var wire  1 "$ Z $end
     $var wire  1 x busy $end
     $var wire  1 %N clk $end
     $var wire  1 y done $end
     $var wire  2 %I op [1:0] $end
     $var wire  6 %J op3 [5:0] $end
     $var wire 32 $s operand1 [31:0] $end
     $var wire 32 $t operand2 [31:0] $end
     $var wire 32 "+ pivot [31:0] $end
     $var wire 64 ", product [63:0] $end
     $var wire  1 "e req $end
     $var wire  1 "c reqack $end
     $var wire  5 "' shcnt [4:0] $end
     $var wire  1 { tag_overflow $end
     $var wire  1 "* temp $end
     $var wire 64 "( temp_64 [63:0] $end
     $var wire  1 | trap $end
     $var wire 32 v val [31:0] $end
    $upscope $end
    $scope module decode $end
     $var wire  1 %N clk $end
     $var wire  1 s comb_done $end
     $var wire 32 i dec_inst [31:0] $end
     $var wire 32 %H decode_state [31:0] $end
     $var wire 152 %? decoded [151:0] $end
     $var wire  1 %G done $end
     $var wire  1 5 req $end
     $var wire  1 %D reqack $end
     $var wire 152 n temp_dec [151:0] $end
    $upscope $end
    $scope module unnamedblk1 $end
     $var wire 32 %E i [31:0] $end
     $scope module unnamedblk2 $end
      $var wire 32 %F j [31:0] $end
     $upscope $end
    $upscope $end
   $upscope $end
   $scope module uncore_bus $end
    $var wire 32 %Y DATA_WIDTH [31:0] $end
    $var wire  4 %h MEMORY [3:0] $end
    $var wire  1 %f READ [0:0] $end
    $var wire 32 %Z TAG_WIDTH [31:0] $end
    $var wire  1 %g WRITE [0:0] $end
    $var wire  1 %N clk $end
    $var wire 64 ## req [63:0] $end
    $var wire  1 %W reqack $end
    $var wire  1 #& reqcyc $end
    $var wire 13 #% reqtag [12:0] $end
    $var wire  1 %M reset $end
    $var wire 64 %R resp [63:0] $end
    $var wire  1 $ respack $end
    $var wire  1 %V respcyc $end
    $var wire 13 %T resptag [12:0] $end
   $upscope $end
  $upscope $end
 $upscope $end
$enddefinitions $end


#0
b00000000000000000000000000000001 #
0$
b00000000000000000000000000000000 %
0&
0'
b000000000 )
b00000000000000000000000000000000 *
b00000 +
b000000000 (
b00000000000000000000000000000000 ,
0-
0.
b000000000 0
b00000000000000000000000000000000 1
b00000 2
b000000000 /
03
04
05
b00000000000000000000000000000000000000000000000000000000000000000000000000000000000000000000000000000000000000000000000000000000000000000000000000000000000000000000000000000000000000000000000000000000000000000000000000000000000000000000000000000000000000000000000000000000000000000000000000000000000000000000000000000000000000000000000000000000000000000000000000000000000000000000000000000000000000000000000000000000000000000000000000000000000000000000000000000000000000000000000000000000000000000000000000000000 6
b00000000000000000000000000000000000000000000000000000000000000000000000000000000000000000000000000000000000000000000000000000000000000000000000000000000000000000000000000000000000000000000000000000000000000000000000000000000000000000000000000000000000000000000000000000000000000000000000000000000000000000000000000000000000000000000000000000000000000000000000000000000000000000000000000000000000000000000000000000000000000000000000000000000000000000000000000000000000000000000000000000000000000000000000000000000 F
b00000000000000000000000000000000000000000000000000000000000000000000000000000000000000000000000000000000000000000000000000000000000000000000000000000000000000000000000000000000000000000000000000000000000000000000000000000000000000000000000000000000000000000000000000000000000000000000000000000000000000000000000000000000000000000000000000000000000000000000000000000000000000000000000000000000000000000000000000000000000000000000000000000000000000000000000000000000000000000000000000000000000000000000000000000000 V
b00000000000000000000000000011110 f
b00000000000000000000000000011110 g
b00000000000000000000000111101000 h
b00000000000000000000000000000000 i
0j
0k
0l
0m
b00000000000000000000000000000000000000000000000000000000000000000000000000000000000000000000000000000000000000000000000000000000000000000000000000000000 n
0s
b0000000 t
b0000000 u
b00000000000000000000000000000000 v
b00000000000000000000000000000000 w
0x
0y
0z
0{
0|
b00000000000000000000001000000000 }
b00000000000000000000001000000000 ~
b00000000000000000000001000000000 "!
b00000000000000000000001000000000 ""
0"#
0"$
0"%
0"&
b00000 "'
b0000000000000000000000000000000000000000000000000000000000000000 "(
0"*
b00000000000000000000000000000000 "+
b0000000000000000000000000000000000000000000000000000000000000000 ",
b00000000000000000000000000000000 ".
b0000000000000000000000000000000000000000000000000000000000000000000000000000000000000000000000000000000000000000000000000000000000000000000000000000000000000000000000000000000000000000000000000000000000000000000000000000000000000000000000000000000000000000000000000000000000000000000000000000000000000000000000000000000000000000000000000000000000000000000000000000000000000000000000000000000000000000000000000000000000000000000000000000000000000000000000000000000000000000000000000000000000000000000000000000000000000000000000000000000000000000000000000000000000000000000000000000000000000000000000000000000000000000000000000000000000000000000000000000000000000000000000000000000000000000000000000000000000000000000000000000000000000000000000000000000000000000000000000000000000000000000000000000000000000000000000000000000000000000000000000000000000000000000000000000000000000000000000000000000000000000000000000000000000000000000000000000000000000000000000000000000000000000000000000000000000000000000000000000000000000000 "/
b0000 "O
0"P
b00000000000000000000000000000000000000000000000000000000000000000000000000000000000000000000000000000000000000000000000000000000000000000000000000000000000000000000000000000000000000000000000000000000000000000000000000000000000000000000000000000000000000000000000000000000000000000000000000000000000000000000000000000000000000000000000000000000000000000000000000000000000000000000000000000000000000000000000000000000000000000000000000000000000000000000000000000000000000000000000000000000000000000000000000000000 "Q
b00000000000000000000000000000000 "a
0"b
0"c
0"d
0"e
0"f
b00000000000000000000000000000000000000000000000000000000000000000000000000000000000000000000000000000000000000000000000000000000000000000000000000000000000000000000000000000000000000000000000000000000000000000000000000000000000000000000000000000000000000000000000000000000000000000000000000000000000000000000000000000000000000000000000000000000000000000000000000000000000000000000000000000000000000000000000000000000000000000000000000000000000000000000000000000000000000000000000000000000000000000000000000000000 "g
0"w
b000000000000000000000000000000000000000000000000000000 "x
0"z
0"{
0"|
0"}
b00000 "~
b00000000000000000000000000000000 #!
b00 #"
b0000000000000000000000000000000000000000000000000000000000000000 ##
b0000000000000 #%
0#&
0#)
b00000000000000000000000000000000000000000000000000000000000000000000000000000000000000000000000000000000000000000000000000000000000000000000000000000000000000000000000000000000000000000000000000000000000000000000000000000000000000000000000000000000000000000000000000000000000000000000000000000000000000000000000000000000000000000000000000000000000000000000000000000000000000000000000000000000000000000000000000000000000000000000000000000000000000000000000000000000000000000000000000000000000000000000000000000000 #*
b000000000000000000000000000000000000000000000000000000 #:
0#<
b00000000000000000000000000000000 #=
b00000000000000000000001000000000 #>
b00000000000000000000001000000000 #?
0#'
0#(
b00000000000000000000000000000000000000000000000000000000000000000000000000000000000000000000000000000000000000000000000000000000000000000000000000000000000000000000000000000000000000000000000000000000000000000000000000000000000000000000000000000000000000000000000000000000000000000000000000000000000000000000000000000000000000000000000000000000000000000000000000000000000000000000000000000000000000000000000000000000000000000000000000000000000000000000000000000000000000000000000000000000000000000000000000000000 #@
b00000000000000000000000000000000000000000000000000000000000000000000000000000000000000000000000000000000000000000000000000000000000000000000000000000000000000000000000000000000000000000000000000000000000000000000000000000000000000000000000000000000000000000000000000000000000000000000000000000000000000000000000000000000000000000000000000000000000000000000000000000000000000000000000000000000000000000000000000000000000000000000000000000000000000000000000000000000000000000000000000000000000000000000000000000000 #P
b00000000000000000000000000000000000000000000000000000000000000000000000000000000000000000000000000000000000000000000000000000000000000000000000000000000000000000000000000000000000000000000000000000000000000000000000000000000000000000000000000000000000000000000000000000000000000000000000000000000000000000000000000000000000000000000000000000000000000000000000000000000000000000000000000000000000000000000000000000000000000000000000000000000000000000000000000000000000000000000000000000000000000000000000000000000 #`
b00000000000000000000000000000000 #p
b00000000000000000000000000000000 #q
b0000000000000000000000000000000000000000000000000000000000 $'
b00000000000000000000000000000000 $)
b00000000000000000000000000000000000000000000000000000000000000000000000000000000000000000000000000000000000000000000000000000000000000000000000000000000000000000000000000000000000000000000000000000000000000000000000000000000000000000000000000000000000000000000000000000000000000000000000000000000000000000000000000000000000000000000000000000000000000000000000000000000000000000000000000000000000000000000000000000000000000000000000000000000000000000000000000000000000000000000000000000000000000000000000000000000 $+
b0 $*
b000000000000000000000000000000000000000000000000000000 $;
0$=
b00 $>
0$?
0$@
b00000 $A
b00000000000000000000000000000000 $B
b00000000000000000000000000000000 $C
0#r
0#s
b0000000000000000000000000000000000000000000000000000000000000000 $D
0#t
b00000000000000000000000000000000000000000000000000000000000000000000000000000000000000000000000000000000000000000000000000000000000000000000000000000000000000000000000000000000000000000000000000000000000000000000000000000000000000000000000000000000000000000000000000000000000000000000000000000000000000000000000000000000000000000000000000000000000000000000000000000000000000000000000000000000000000000000000000000000000000000000000000000000000000000000000000000000000000000000000000000000000000000000000000000000 #u
0$H
b0000000000000000000000000000000000000000000000000000000000 $I
0$K
b00000000000000000000000000000000 $L
b0000 $M
b0000 $N
0$O
b00 $P
0$Q
b00000000000000000000000000000000 $R
b0000000000000000000000000000000000000000000000000000000000000000 $S
b00000000000000000000000000000000000000000000000000000000000000000000000000000000000000000000000000000000000000000000000000000000000000000000000000000000000000000000000000000000000000000000000000000000000000000000000000000000000000000000000000000000000000000000000000000000000000000000000000000000000000000000000000000000000000000000000000000000000000000000000000000000000000000000000000000000000000000000000000000000000000000000000000000000000000000000000000000000000000000000000000000000000000000000000000000000 $U
b000000000000000000000000000000000000000000000000000000 $e
b00 $g
b00000000000000000000000000000000 $h
b00000000000000000000001000000000 $i
b00000000000000000000001000000000 $j
0$F
0$G
0$k
0$l
b00000000000000000000000000000000 $m
b00000000000000000000000000000000 $n
b00 $o
b0000000000000000000000000000000000000000000000000000000000 $p
0$r
b00000000000000000000000000000000 $s
b00000000000000000000000000000000 $t
b000000 $u
b0000000000000000 $v
b00000000000000000000000000000000000000000000000000000000000000000000000000000000000000000000000000000000000000000000000000000000000000000000000000000000000000000000000000000000000000000000000000000000000000000000000000000000000000000000000000000000000000000000000000000000000000000000000000000000000000000000000000000000000000000000000000000000000000000000000000000000000000000000000000000000000000000000000000000000000000000000000000000000000000000000000000000000000000000000000000000000000000000000000000000000 $w
b0 %)
b00000000000000000000000000000000 %*
b0000000000000000000000000000000000000000000000010000000010010100 %+
b0000000000000000000000000000000000000000000000010000000010010100 %-
b010100 %/
b0000000 %0
0%3
0%4
0%5
0%6
0%7
0%8
0%9
0%:
b0000000000000000000000000000000000000000000000000000000000 %1
1%;
b0000000 %<
b00000000000000000000000000000000 %=
b10000000000000000000000000000000 %>
b00000000000000000000000000000000000000000000000000000000000000000000000000000000000000000000000000000000000000000000000000000000000000000000000000000000 %?
0%D
b00000000000000000000001000010001 %E
b00000000000000000000001000010001 %F
0%G
b00000000000000000000000000000000 %H
b00 %I
b000000 %J
b0000000000000000000000000000000000000000000000000000000000000000 %O
b0000000000000 %Q
0%U
0%X
b0000000000000000000000000000000000000000000000010000000010010100 %K
1%M
1%N
b0000000000000000000000000000000000000000000000000000000000000000 %R
b0000000000000 %T
0%V
0%W
b00000000000000000000000000001101 %Z
b0000000 %[
b0000 %_
b00000000000000000000000000000100 %b
b00000000000000000000000000110110 %`
b00000000000000000000000000000010 %c
b00000000000000000000000000001001 %a
b00000000000000000000000000100000 %^
b00000000000000000000001000000000 %]
b00000000000000000000000000111010 %\
b00000000000000000000001000000000 %d
b00000000000000000000000000001000 %e
b00000000000000000000000001000000 %Y
b1 %f
b0 %g
b0001 %h
#125
b1010101010101010101010101010101010101010101010101010101010101010 %R
b0101010101010 %T
#250
0%N
#375
#500
1%N
#625
#750
0%M
0%N
#875
#1000
b001000000 )
b00000000000000000000000000000001 }
b00000000000000000000000000000001 ~
b00000000000000000000000000000001 "!
b00000000000000000000000000000001 ""
b0010 "O
1#)
b00000000000000000000000000000001 #>
b00000000000000000000000000000001 #?
b00000000000000000000000000010000 $i
b00000000000000000000000000000001 $j
b0000000000000000000000000000000000000000000000010000000010 %1
1%N
#1125
#1250
b001000000 (
1"w
b00000000000000000000000000000001 #!
0%N
#1375
#1500
b00000000000000000000000000000001 %*
0%;
1%N
#1625
#1750
b001000001 (
b00001 "~
0%N
#1875
#2000
0#)
1%N
#2125
#2250
b001000010 (
b00010 "~
0%N
#2375
#2500
1%N
#2625
#2750
b001000011 (
b00011 "~
0%N
#2875
#3000
1%N
#3125
#3250
b001000100 (
b00100 "~
0%N
#3375
#3500
1%N
#3625
#3750
b001000101 (
b00101 "~
0%N
#3875
#4000
1%N
#4125
#4250
b001000110 (
b00110 "~
0%N
#4375
#4500
1%N
#4625
#4750
b001000111 (
b00111 "~
0%N
#4875
#5000
1%N
#5125
#5250
b001001000 (
b01000 "~
0%N
#5375
#5500
1%N
#5625
#5750
b001001001 (
b01001 "~
0%N
#5875
#6000
1%N
#6125
#6250
b001001010 (
b01010 "~
0%N
#6375
#6500
1%N
#6625
#6750
b001001011 (
b01011 "~
0%N
#6875
#7000
1%N
#7125
#7250
b001001100 (
b01100 "~
0%N
#7375
#7500
1%N
#7625
#7750
b001001101 (
b01101 "~
0%N
#7875
#8000
1%N
#8125
#8250
b001001110 (
b01110 "~
0%N
#8375
#8500
1%N
#8625
#8750
b001001111 (
b01111 "~
0%N
#8875
#9000
1%N
#9125
#9250
b001010000 (
b10000 "~
0%N
#9375
#9500
1%N
#9625
#9750
b001010001 (
b10001 "~
0%N
#9875
#10000
1%N
#10125
#10250
b001010010 (
b10010 "~
0%N
#10375
#10500
1%N
#10625
#10750
b001010011 (
b10011 "~
0%N
#10875
#11000
1%N
#11125
#11250
b001010100 (
b10100 "~
0%N
#11375
#11500
1%N
#11625
#11750
b001010101 (
b10101 "~
0%N
#11875
#12000
1%N
#12125
#12250
b001010110 (
b10110 "~
0%N
#12375
#12500
1%N
#12625
#12750
b001010111 (
b10111 "~
0%N
#12875
#13000
1%N
#13125
#13250
b001011000 (
b11000 "~
0%N
#13375
#13500
1%N
#13625
#13750
b001011001 (
b11001 "~
0%N
#13875
#14000
1%N
#14125
#14250
b001011010 (
b11010 "~
0%N
#14375
#14500
1%N
#14625
#14750
b001011011 (
b11011 "~
0%N
#14875
#15000
1%N
#15125
#15250
b001011100 (
b11100 "~
0%N
#15375
#15500
1%N
#15625
#15750
b001011101 (
b11101 "~
0%N
#15875
#16000
1%N
#16125
#16250
b001011110 (
b11110 "~
0%N
#16375
#16500
1%N
#16625
#16750
b001011111 (
b11111 "~
0%N
#16875
#17000
1%N
#17125
#17250
b00000000000000000000000000000010 #!
1#r
0%N
#17375
#17500
b0000000000000000000000000000000000000000000000010000000010000000 ##
b1000100000000 #%
1#&
1#'
b00000000000000000000000000000001 #q
b0000000000000000000000000000000000000000000000010000000010000000 %O
b1000100000000 %Q
1%U
1%N
#17625
#17750
0#r
0%N
#17875
1%W
#18000
b0000000000000000000000000000000000000000000000000000000000000000 ##
b0000000000000 #%
0#&
b00000000000000000000000000000011 #q
b0000000000000000000000000000000000000000000000000000000000000000 %O
b0000000000000 %Q
0%U
1%N
#18125
0%W
